…
list_of_dataframes <- xlff_to_list(input, first_census = FALSE)
#> Warning: Unknown or uninitialised column: 'new_stem'.
#> Warning: Length of logical index must be 1 or 64, not 0
#> Warning: `new_secondary_stems` has cero rows.
#> Warning: Filling every cero-row dataframe with NAs (new_secondary_stems).
#> Warning: Unknown or uninitialised column: 'new_stem'.
#> Warning: Length of logical index must be 1 or 33, not 0
#> Warning: `new_secondary_stems` has cero rows.
#> Warning: Filling every cero-row dataframe with NAs (new_secondary_stems).
single_dataframe <- reduce(list_of_dataframes, bind_rows)

as_tibble(single_dataframe)
#> # A tibble: 113 x 24
#>    submission_id start_form_time~ end_form_time_s~ sheet section_id quadrat
#>    <chr>         <chr>            <chr>            <chr> <chr>      <chr>  
#>  1 1f11a77f-dea~ 2019-05-01 09:5~ 2019-05-10 09:1~ form~ <NA>       <NA>   
#>  2 1f11a77f-dea~ <NA>             <NA>             orig~ <NA>       1311   
#>  3 1f11a77f-dea~ <NA>             <NA>             orig~ <NA>       1311   
#>  4 1f11a77f-dea~ <NA>             <NA>             orig~ <NA>       1311   
#>  5 1f11a77f-dea~ <NA>             <NA>             orig~ <NA>       1311   
#>  6 1f11a77f-dea~ <NA>             <NA>             orig~ <NA>       1311   
#>  7 1f11a77f-dea~ <NA>             <NA>             orig~ <NA>       1311   
#>  8 1f11a77f-dea~ <NA>             <NA>             orig~ <NA>       1311   
#>  9 1f11a77f-dea~ <NA>             <NA>             orig~ <NA>       1311   
#> 10 1f11a77f-dea~ <NA>             <NA>             orig~ <NA>       1311   
#> # ... with 103 more rows, and 18 more variables: mainstem_tag <chr>,
#> #   stem_tag <chr>, spcode <chr>, px <chr>, py <chr>, dbh <chr>,
#> #   status <chr>, codes <chr>, hom <chr>, notes <chr>, dbh_2019 <chr>,
#> #   status_2019 <chr>, codes_2019 <chr>, notes_2019 <chr>,
#> #   new_secondary <chr>, scientific_name <chr>, unique_stem <chr>,
#> #   date <chr>
…
